…
head(nlp_result$tokens$partOfSpeech$tag)
#> [1] "PRT"  "VERB" "NOUN" "ADP"  "NOUN" "VERB"

nlp2 <- nlp_result[[2]]
nlp2$sentences
# A tibble: 1 x 4
                                                content beginOffset magnitude score
                                                  <chr>       <int>     <dbl> <dbl>
1 I don't know how to make a text demo that is sensible           0       0.3  -0.3

nlp$tokens
# A tibble: 21 x 17
      content beginOffset   tag         aspect         case         form         gender         mood
        <chr>       <int> <chr>          <chr>        <chr>        <chr>          <chr>        <chr>
 1         to           0   PRT ASPECT_UNKNOWN CASE_UNKNOWN FORM_UNKNOWN GENDER_UNKNOWN MOOD_UNKNOWN
 2 administer           3  VERB ASPECT_UNKNOWN CASE_UNKNOWN FORM_UNKNOWN GENDER_UNKNOWN MOOD_UNKNOWN
 3  medicince          14  NOUN ASPECT_UNKNOWN CASE_UNKNOWN FORM_UNKNOWN GENDER_UNKNOWN MOOD_UNKNOWN
 4         to          24   ADP ASPECT_UNKNOWN CASE_UNKNOWN FORM_UNKNOWN GENDER_UNKNOWN MOOD_UNKNOWN
 5    animals          27  NOUN ASPECT_UNKNOWN CASE_UNKNOWN FORM_UNKNOWN GENDER_UNKNOWN MOOD_UNKNOWN
 6         is          35  VERB ASPECT_UNKNOWN CASE_UNKNOWN FORM_UNKNOWN GENDER_UNKNOWN   INDICATIVE
 7 frequently          38   ADV ASPECT_UNKNOWN CASE_UNKNOWN FORM_UNKNOWN GENDER_UNKNOWN MOOD_UNKNOWN
 8          a          49   DET ASPECT_UNKNOWN CASE_UNKNOWN FORM_UNKNOWN GENDER_UNKNOWN MOOD_UNKNOWN
 9       very          51   ADV ASPECT_UNKNOWN CASE_UNKNOWN FORM_UNKNOWN GENDER_UNKNOWN MOOD_UNKNOWN
10  difficult          56   ADJ ASPECT_UNKNOWN CASE_UNKNOWN FORM_UNKNOWN GENDER_UNKNOWN MOOD_UNKNOWN
# ... with 11 more rows, and 9 more variables: number <chr>, person <chr>, proper <chr>, reciprocity <chr>,
#   tense <chr>, voice <chr>, headTokenIndex <int>, label <chr>, value <chr>
…
