Google Natural Language API
…
What entities within text have been identified, with optional wikipedia URL if its available.

nlp_result$entities
[[1]]
# A tibble: 52 x 9
   name           type         salience mid   wikipedia_url magnitude score beginOffset mention_type
   <chr>          <chr>           <dbl> <chr> <chr>             <dbl> <dbl>       <int> <chr>       
 1 angle          OTHER         0.0133  NA    NA                  0     0           261 COMMON      
 2 Ara            ORGANIZATION  0.0631  NA    NA                  0     0            76 PROPER      
 3 astronomer     NA           NA       NA    NA                 NA    NA           144 COMMON      
 4 carpenter      PERSON        0.0135  NA    NA                  0     0           328 COMMON      
 5 constellation  OTHER         0.150   NA    NA                  0     0            17 COMMON      
 6 constellations OTHER         0.0140  NA    NA                  0.9   0.9         405 COMMON      
 7 distance       OTHER         0.00645 NA    NA                  0     0           649 COMMON      
 8 dust           OTHER         0.00645 NA    NA                  0.3  -0.3         669 COMMON      
 9 field          LOCATION      0.00407 NA    NA                  0.6  -0.6         476 COMMON      
10 French         LOCATION      0.0242  NA    NA                  0     0           137 PROPER      
# ... with 42 more rows
…
